{
    "app-id" : "org.gnome.Tunes",
    "runtime" : "org.gnome.Platform",
    "runtime-version" : "3.28",
    "sdk" : "org.gnome.Sdk",
    "command" : "tunes",
    "finish-args" : [
        "--share=network",
        "--share=ipc",
        "--socket=x11",
        "--socket=wayland",
        "--filesystem=xdg-run/dconf",
        "--filesystem=~/.config/dconf:ro",
        "--talk-name=ca.desrt.dconf",
        "--env=DCONF_USER_CONFIG_DIR=.config/dconf"
    ],
    "build-options" : {
        "cflags" : "-O2 -g",
        "cxxflags" : "-O2 -g",
        "env" : {
            "V" : "1"
        }
    },
    "cleanup" : [
        "/include",
        "/lib/pkgconfig",
        "/man",
        "/share/doc",
        "/share/gtk-doc",
        "/share/man",
        "/share/pkgconfig",
        "*.la",
        "*.a"
    ],
    "modules" : [
        {
            "name" : "tunes",
            "buildsystem" : "meson",
            "builddir" : true,
            "sources" : [
                {
                    "type" : "git",
                    "url" : "https://gitlab.gnome.org/chergert/aadwg-code.git"
                }
            ]
        }
    ]
}
